module github.com/jvehent/invadersmustdie

go 1.13

require (
	github.com/faiface/beep v1.0.2
	github.com/faiface/glhf v0.0.0-20181018222622-82a6317ac380 // indirect
	github.com/faiface/mainthread v0.0.0-20171120011319-8b78f0a41ae3 // indirect
	github.com/faiface/pixel v0.8.0
	github.com/go-gl/gl v0.0.0-20190320180904-bf2b1f2f34d7 // indirect
	github.com/go-gl/glfw v0.0.0-20191125211704-12ad95a8df72 // indirect
	github.com/go-gl/mathgl v0.0.0-20190713194549-592312d8590a // indirect
	github.com/golang/freetype v0.0.0-20170609003504-e2365dfdc4a0
	golang.org/x/image v0.0.0-20191214001246-9130b4cfad52
)
